
{
  "D:\\Apps\\Java\\threadfix-demo\\pom.xml" : 
  {
    "Emit" : 
    [
      
      {
        "CompilerName" : "cov-filesystem-capture-html-0",
        "DependencyInfo" : 
        {
          "Dependencies" : []
        },
        "Language" : "HTML",
        "SourceInfo" : 
        {
          "Sources" : 
          {
            "MAIN" : 
            [
              "src\\test\\resources\\SupportingFiles\\Static\\Orizon\\orizon_report_2009105_143037.txt.html",
              "util\\demo-site\\index.html"
            ]
          }
        },
        "Type" : "SOURCE"
      }
    ],
    "Mode" : "Project",
    "ProjectDir" : "D:\\Apps\\Java\\threadfix-demo",
    "ProjectFile" : "D:\\Apps\\Java\\threadfix-demo\\pom.xml",
    "State" : 
    {
      "Administrative" : "Succeeded",
      "Operational" : "Completed"
    },
    "Status" : "OK",
    "Telemetry" : 
    [
      
      {
        "Data" : 
        {
          "NewState" : 
          {
            "Administrative" : "Inspected",
            "Operational" : "Inspected"
          },
          "PreviousState" : 
          {
            "Administrative" : "Inspected",
            "Operational" : "Inspecting"
          },
          "ProjectFile" : "D:\\Apps\\Java\\threadfix-demo\\pom.xml"
        },
        "DateTime" : "2021-02-04T17:59:16.075-03:00",
        "EventType" : "StateTransition",
        "Type" : "EVENT"
      },
      
      {
        "Data" : 
        {
          "NewState" : 
          {
            "Administrative" : "Emitted",
            "Operational" : "Inspected"
          },
          "PreviousState" : 
          {
            "Administrative" : "Inspected",
            "Operational" : "Inspected"
          },
          "ProjectFile" : "D:\\Apps\\Java\\threadfix-demo\\pom.xml"
        },
        "DateTime" : "2021-02-04T17:59:16.097-03:00",
        "EventType" : "StateTransition",
        "Type" : "EVENT"
      },
      
      {
        "Data" : 
        {
          "NewState" : 
          {
            "Administrative" : "Emitted",
            "Operational" : "Emitting"
          },
          "PreviousState" : 
          {
            "Administrative" : "Emitted",
            "Operational" : "Inspected"
          },
          "ProjectFile" : "D:\\Apps\\Java\\threadfix-demo\\pom.xml"
        },
        "DateTime" : "2021-02-04T18:03:16.516199",
        "EventType" : "StateTransition",
        "Type" : "EVENT"
      },
      
      {
        "Data" : 
        {
          "NewState" : 
          {
            "Administrative" : "Emitted",
            "Operational" : "Emitted"
          },
          "PreviousState" : 
          {
            "Administrative" : "Emitted",
            "Operational" : "Emitting"
          },
          "ProjectFile" : "D:\\Apps\\Java\\threadfix-demo\\pom.xml"
        },
        "DateTime" : "2021-02-04T18:03:16.874279",
        "EventType" : "StateTransition",
        "Type" : "EVENT"
      },
      
      {
        "Data" : 
        {
          "NewState" : 
          {
            "Administrative" : "Succeeded",
            "Operational" : "Emitted"
          },
          "PreviousState" : 
          {
            "Administrative" : "Emitted",
            "Operational" : "Emitted"
          },
          "ProjectFile" : "D:\\Apps\\Java\\threadfix-demo\\pom.xml"
        },
        "DateTime" : "2021-02-04T18:03:16.874279",
        "EventType" : "StateTransition",
        "Type" : "EVENT"
      },
      
      {
        "Data" : 
        {
          "NewState" : 
          {
            "Administrative" : "Succeeded",
            "Operational" : "Completed"
          },
          "PreviousState" : 
          {
            "Administrative" : "Succeeded",
            "Operational" : "Emitted"
          },
          "ProjectFile" : "D:\\Apps\\Java\\threadfix-demo\\pom.xml"
        },
        "DateTime" : "2021-02-04T18:03:16.874279",
        "EventType" : "StateTransition",
        "Type" : "EVENT"
      }
    ]
  }
}
